[
    {
        "id": 1,
        "username": "andrew",
        "password": "12345"
    },
    {
        "id": 2,
        "username": "waleed",
        "password": "67890"
    },
    {
        "id": 3,
        "username": "dominic",
        "password": "passw0rd"
    },
    {
        "id": 4,
        "username": "admin",
        "password": "admin"
    }
]